lab5/lab5.sim/sim_1/behav/xsim/dump.vcd
$date
   Fri Sep 26 09:03:35 2025
$end

$version
  2023.2
$end

$timescale
  1ps
$end

$scope module test $end
$var reg 4 ! stimulus [3:0] $end
$var wire 1 " a_y $end
$var wire 1 # b_y $end
$var wire 1 $ A $end
$var wire 1 % B $end
$var wire 1 & C $end
$var wire 1 ' D $end
$var integer 32 ( i [31:0] $end
$scope module uut_a $end
$var wire 1 $ A $end
$var wire 1 % B $end
$var wire 1 & C $end
$var wire 1 ' D $end
$var wire 1 " Y $end
$upscope $end
$scope module uut_b $end
$var wire 1 $ A $end
$var wire 1 % B $end
$var wire 1 & C $end
$var wire 1 ' D $end
$var wire 1 # Y $end
$upscope $end
$upscope $end
$enddefinitions $end

#0
$dumpvars
b0 !
0"
1#
0$
0%
0&
0'
bx (
$end

#1000
b1 !
1"
0#
1'

#2000
b10 !
0"
1&
0'

#3000
b11 !
1"
1'

#4000
b100 !
0"
1#
1%
0&
0'

#5000
b101 !
1"
0#
1'

#6000
b110 !
0"
1#
1&
0'

#7000
b111 !
1"
0#
1'

#8000
b1000 !
0"
1#
1$
0%
0&
0'

#9000
b1001 !
0#
1'

#10000
b1010 !
1&
0'

#11000
b1011 !
1'

#12000
b1100 !
1#
1%
0&
0'

#13000
b1101 !
1'

#14000
b1110 !
1&
0'

#15000
b1111 !
1'

#16000
b10000 (
